<svg width="24" height="26" viewBox="0 0 24 26" fill="none" xmlns="http://www.w3.org/2000/svg">
<path fill-rule="evenodd" clip-rule="evenodd" d="M15 3C15 1.34315 13.6569 0 12 0C10.3431 0 9 1.34315 9 3C9 4.30622 9.83481 5.41746 11 5.82929V20.1707C9.83481 20.5825 9 21.6938 9 23C9 24.6569 10.3431 26 12 26C13.6569 26 15 24.6569 15 23C15 21.6938 14.1652 20.5825 13 20.1707V5.82929C14.1652 5.41746 15 4.30622 15 3ZM2.5 25V24H2H1H0.5V25H1H2H2.5ZM2.5 22V20H2H1H0.5V22H1H2H2.5ZM2.5 18V16H2H1H0.5V18H1H2H2.5ZM2.5 14V12H2H1H0.5V14H1H2H2.5ZM2.5 10V8H2H1H0.5V10H1H2H2.5ZM2.5 6V4H2H1H0.5V6H1H2H2.5ZM2.5 2V1H2H1H0.5V2H1H2H2.5ZM23.5 24V25H23H22H21.5V24H22H23H23.5ZM23.5 20V22H23H22H21.5V20H22H23H23.5ZM23.5 16V18H23H22H21.5V16H22H23H23.5ZM23.5 12V14H23H22H21.5V12H22H23H23.5ZM23.5 8V10H23H22H21.5V8H22H23H23.5ZM23.5 4V6H23H22H21.5V4H22H23H23.5ZM23.5 1V2H23H22H21.5V1H22H23H23.5Z" fill="#DC006F"/>
</svg>
