<svg fill="none" viewBox="0 0 9 9" xmlns="http://www.w3.org/2000/svg">
  <g>
    <path
      d="m4.1464 0.14645c0.19526-0.19526 0.51184-0.19526 0.7071 0l3.5 3.5c0.19527 0.19526 0.19527 0.51184 0 0.7071-0.19526 0.19527-0.51184 0.19527-0.7071 0l-2.6464-2.6464v6.7929c0 0.27614-0.22386 0.5-0.5 0.5s-0.5-0.22386-0.5-0.5v-6.7929l-2.6464 2.6464c-0.19526 0.19527-0.51184 0.19527-0.7071 0-0.19526-0.19526-0.19526-0.51184 0-0.7071l3.5-3.5z"
      clip-rule="evenodd" fill="currentColor" fill-rule="evenodd"/>
  </g>
</svg>
