<svg width="28" height="28" viewBox="0 0 28 28" fill="none" xmlns="http://www.w3.org/2000/svg">
  <mask id="path-1-outside-1" maskUnits="userSpaceOnUse" x="0" y="0" width="28" height="28" fill="black">
    <rect fill="white" width="28" height="28"/>
    <path fill-rule="evenodd" clip-rule="evenodd" d="M16 2H12V12H2V16H12V26H16V16H26V12H16V2Z"/>
  </mask>
  <path fill-rule="evenodd" clip-rule="evenodd" d="M16 2H12V12H2V16H12V26H16V16H26V12H16V2Z" fill="#52FF00"/>
  <path
    d="M12 2V0H9.99997V2H12ZM16 2H18V0H16V2ZM12 12V14H14V12H12ZM2 12V10H0V12H2ZM2 16H0V18H2V16ZM12 16H14V14H12V16ZM12 26H9.99997V28H12V26ZM16 26V28H18V26H16ZM16 16V14H14V16H16ZM26 16V18H28V16H26ZM26 12H28V10H26V12ZM16 12H14V14H16V12ZM12 4H16V0H12V4ZM14 12V2H9.99997V12H14ZM2 14H12V10H2V14ZM4 16V12H0V16H4ZM12 14H2V18H12V14ZM14 26V16H9.99997V26H14ZM16 24H12V28H16V24ZM14 16V26H18V16H14ZM26 14H16V18H26V14ZM24 12V16H28V12H24ZM16 14H26V10H16V14ZM14 2V12H18V2H14Z"
    fill="black" mask="url(#path-1-outside-1)"/>
  <rect x="4" y="4" width="20" height="20" fill="#52FF00" stroke="black" stroke-width="2"/>
  <rect x="7" y="7" width="14" height="14" fill="white"/>
  <path d="M10 19V10H18V19" stroke="black" stroke-width="2"/>
</svg>
