<svg width="18" height="16" viewBox="0 0 18 16" fill="none" xmlns="http://www.w3.org/2000/svg">
  <line y1="-1" x2="8" y2="-1" transform="matrix(1 0 0 -1 0 14)" stroke="currentColor" stroke-width="2"/>
  <line y1="-1" x2="14" y2="-1" transform="matrix(1 0 0 -1 0 7)" stroke="currentColor" stroke-width="2"/>
  <line y1="-1" x2="18" y2="-1" transform="matrix(1 0 0 -1 0 0)" stroke="currentColor" stroke-width="2"/>
</svg>
