<svg width="20" height="20" viewBox="0 0 20 20" fill="none" xmlns="http://www.w3.org/2000/svg">
  <path fill-rule="evenodd" clip-rule="evenodd"
        d="M8.65762 6.48479C8.93551 5.89658 9.09091 5.23917 9.09091 4.54545C9.09091 2.03507 7.05584 0 4.54545 0C2.03507 0 0 2.03507 0 4.54545C0 7.05584 2.03507 9.09091 4.54545 9.09091C5.35446 9.09091 6.1141 8.87956 6.77218 8.50906C7.05491 9.04311 7.22671 9.5554 7.22671 9.99973C7.22671 10.3597 7.11353 10.7934 6.90503 11.2755C6.87178 11.3524 6.83646 11.4297 6.79926 11.5074C6.13498 11.1274 5.36558 10.9102 4.54545 10.9102C2.03507 10.9102 0 12.9452 0 15.4556C0 17.966 2.03507 20.0011 4.54545 20.0011C7.05584 20.0011 9.09091 17.966 9.09091 15.4556C9.09091 14.6346 8.87324 13.8644 8.49247 13.1997C9.05307 12.9312 9.5717 12.7725 9.99944 12.7725C10.4444 12.7725 10.9575 12.9448 11.4924 13.2282C11.1217 13.8864 10.9102 14.6463 10.9102 15.4556C10.9102 17.966 12.9452 20.0011 15.4556 20.0011C17.966 20.0011 20.0011 17.966 20.0011 15.4556C20.0011 12.9452 17.966 10.9102 15.4556 10.9102C14.6332 10.9102 13.8619 11.1286 13.1963 11.5105C13.119 11.3352 13.0496 11.1635 12.9904 10.9979C12.8455 10.5931 12.7722 10.2548 12.7722 9.99973C12.7722 9.65391 12.9067 9.19315 13.1523 8.66097C13.1757 8.61016 13.2 8.55914 13.225 8.50796C13.8835 8.87914 14.6439 9.09091 15.4537 9.09091C17.964 9.09091 19.9991 7.05584 19.9991 4.54545C19.9991 2.03507 17.964 0 15.4537 0C12.9433 0 10.9082 2.03507 10.9082 4.54545C10.9082 5.23121 11.0601 5.8815 11.332 6.46453C11.2738 6.48658 11.2159 6.50774 11.1584 6.52793C10.7077 6.68603 10.3118 6.77246 9.99944 6.77246C9.67761 6.77246 9.24768 6.68113 8.74695 6.51497C8.7173 6.50513 8.68752 6.49507 8.65762 6.48479ZM6.81899 5.6914C6.99293 5.34698 7.09091 4.95766 7.09091 4.54545C7.09091 3.13964 5.95127 2 4.54545 2C3.13964 2 2 3.13964 2 4.54545C2 5.95127 3.13964 7.09091 4.54545 7.09091C4.93086 7.09091 5.29626 7.00525 5.62366 6.85194C5.38219 6.56313 5.14367 6.30116 4.93204 6.07957C4.72182 5.85945 4.54023 5.68133 4.41181 5.55881C4.34765 5.49758 4.29688 5.45035 4.26259 5.41882L4.22393 5.38354L4.21463 5.37516L4.21261 5.37335L4.21308 5.37223L4.80957 4.57617L4.81235 4.57726L4.82125 4.58279L4.85773 4.60527C4.89011 4.62513 4.93829 4.65449 5.0004 4.6918C5.12468 4.76644 5.30454 4.87277 5.52519 4.99849C5.87541 5.19804 6.32615 5.44513 6.81899 5.6914ZM14.2577 6.79305C14.5183 6.41853 14.7686 6.08703 14.9671 5.83346C15.092 5.67376 15.1959 5.54562 15.2682 5.45786C15.3043 5.41399 15.3325 5.38026 15.3515 5.35776L15.3727 5.33259L15.3778 5.32659L15.3786 5.32458L14.7092 4.59333L14.7081 4.5934L14.7045 4.59591L14.6893 4.6067C14.6755 4.61639 14.6547 4.63097 14.6273 4.64991C14.5727 4.68779 14.4919 4.74308 14.3894 4.81153C14.1843 4.94853 13.8927 5.13767 13.5487 5.3452C13.4161 5.42521 13.2765 5.50743 13.1317 5.59009C12.9881 5.27136 12.9082 4.91774 12.9082 4.54545C12.9082 3.13964 14.0478 2 15.4537 2C16.8595 2 17.9991 3.13964 17.9991 4.54545C17.9991 5.95127 16.8595 7.09091 15.4537 7.09091C15.0214 7.09091 14.6143 6.98316 14.2577 6.79305ZM13.1492 14.3772C13.4373 14.6181 13.6987 14.8561 13.9198 15.0673C14.1398 15.2775 14.3179 15.459 14.4404 15.5874C14.5016 15.6516 14.5488 15.7023 14.5804 15.7366L14.6156 15.7752L14.624 15.7845L14.6261 15.7869L14.6278 15.7853L15.3984 15.1551L15.399 15.1537L15.397 15.1511L15.3886 15.1397L15.3546 15.0937C15.3246 15.0529 15.2806 14.9924 15.2251 14.9149C15.114 14.7599 14.9572 14.537 14.7757 14.2673C14.5822 13.9798 14.362 13.6411 14.1398 13.2762C14.5238 13.0439 14.9741 12.9102 15.4556 12.9102C16.8614 12.9102 18.0011 14.0498 18.0011 15.4556C18.0011 16.8614 16.8614 18.0011 15.4556 18.0011C14.0498 18.0011 12.9102 16.8614 12.9102 15.4556C12.9102 15.0701 12.9958 14.7046 13.1492 14.3772ZM5.75379 13.2147C5.4218 13.673 5.08709 14.0854 4.81116 14.4089C4.6258 14.6261 4.46814 14.8019 4.35732 14.9228C4.30194 14.9832 4.25833 15.0299 4.22889 15.0611L4.19569 15.096L4.18764 15.1044L4.18555 15.1066L4.18884 15.1098L4.88897 15.8099L4.89309 15.8131L4.89575 15.8106L4.90752 15.7993C4.91818 15.7891 4.93443 15.7737 4.9559 15.7535C4.99887 15.7132 5.06275 15.6539 5.14483 15.5795C5.3091 15.4305 5.54571 15.2218 5.83306 14.9841C6.11188 14.7535 6.43561 14.4981 6.78512 14.2449C6.98016 14.605 7.09091 15.0174 7.09091 15.4556C7.09091 16.8614 5.95127 18.0011 4.54545 18.0011C3.13964 18.0011 2 16.8614 2 15.4556C2 14.0498 3.13964 12.9102 4.54545 12.9102C4.98275 12.9102 5.3943 13.0204 5.75379 13.2147Z"
        fill="currentColor"/>
</svg>
