<svg width="20" height="20" viewBox="0 0 20 20" fill="none" xmlns="http://www.w3.org/2000/svg">
  <path fill-rule="evenodd" clip-rule="evenodd"
        d="M12.003 7.94692L10 3.69476L7.9971 7.94692L3.29271 8.66288L6.70391 12.1456L5.92175 16.9183L10 14.673L14.0783 16.9183L13.2962 12.1456L16.7074 8.66288L12.003 7.94692ZM19.7715 8.39272L15.4336 12.8215L16.4585 19.0753C16.5293 19.5055 16.2531 19.9135 15.8422 19.9877C15.6792 20.0174 15.5092 19.9902 15.3628 19.9086L10 16.9561L4.63729 19.9086C4.51262 19.9775 4.37199 20.0085 4.23137 19.998C4.09074 19.9875 3.95573 19.9359 3.84166 19.8492C3.72759 19.7624 3.63901 19.6439 3.58598 19.5071C3.53294 19.3704 3.51757 19.2207 3.5416 19.0753L4.56645 12.8215L0.228547 8.39272C0.0849026 8.24609 0.00272317 8.04575 6.6464e-05 7.8357C-0.00259025 7.62566 0.0744931 7.4231 0.214379 7.27254C0.330088 7.1489 0.481218 7.0673 0.646516 7.04257L6.64213 6.1301L9.32232 0.440169C9.50887 0.0494653 9.96227 -0.111267 10.3354 0.0816119C10.4841 0.158269 10.6046 0.284382 10.6778 0.440169L13.358 6.1301L19.3536 7.04257C19.7668 7.10686 20.0549 7.50746 19.9912 7.9402C19.9675 8.1133 19.8896 8.27156 19.7715 8.39272Z"
        fill="currentColor"/>
</svg>
