<svg width="19" height="12" viewBox="0 0 19 12" fill="none" xmlns="http://www.w3.org/2000/svg">
  <mask id="mask0" mask-type="alpha" maskUnits="userSpaceOnUse" x="0" y="0" width="19" height="12">
    <path
      d="M0 1C0 0.447715 0.447715 0 1 0H18C18.5523 0 19 0.447715 19 1V11C19 11.5523 18.5523 12 18 12H1C0.447715 12 0 11.5523 0 11V1Z"
      fill="#C4C4C4"/>
  </mask>
  <g mask="url(#mask0)">
    <path
      d="M6.99647 3.02L2.33588 0H7.00765V3.02H6.99647ZM15.6694 0H12.0035V2.37L15.6694 0ZM19 3.69C19 2.78 19 1.91 19 1.14L15.1106 3.69H19ZM0 1.87V3.69H2.81647L0 1.87ZM12.0035 12H16.6753L12.0035 8.98V12ZM3.33059 12H6.99647V9.63L3.33059 12ZM0 8.31C0 9.22 0 10.09 0 10.86L3.88941 8.31H0V8.31ZM19 10.13V8.31H16.1835L19 10.13Z"
      fill="#2262B8"/>
    <path
      d="M18.2624 0H19C19 0.34 19 0.73 19 1.14L15.1106 3.69H19C19 4 19 4.3 19 4.62H10.9976V0H11.9924V2.37L15.6694 0H16.5412L12.0035 2.93V3.69H12.5624L18.2624 0ZM8.00235 4.62H0V3.69H2.81647L0 1.87V0H2.33588L7.00765 3.02V0H8.00235V4.62V4.62ZM5.43176 3.69L0 0.18V1.31L3.68824 3.69H5.43176V3.69ZM6.43765 8.31H6.99647V9.07L2.45882 12H3.33059L6.99647 9.63V12H7.99118V7.38H0C0 7.7 0 8 0 8.31H3.88941L0 10.86C0 11.27 0 11.66 0 12H0.737647L6.43765 8.31ZM10.9976 7.38H19V8.3H16.1835L19 10.13V12H16.6641L11.9924 8.98V12H10.9976V7.38ZM13.5682 8.31L19 11.82V10.69L15.3118 8.31H13.5682V8.31Z"
      fill="#EEEEEE"/>
    <path
      d="M12.0035 2.93L16.5412 0H18.2735L12.5735 3.69H12.0147V2.93H12.0035ZM0 1.31L3.68824 3.69H5.43176L0 0.18V1.31ZM10.9976 4.62V0H8.00235V4.62H0V6C0 6.46 0 6.92 0 7.38H8.00235V12H10.9976V7.38H19V6C19 5.54 19 5.08 19 4.62H10.9976ZM6.99647 8.31H6.43765L0.737647 12H2.45882L6.99647 9.07V8.31ZM19 10.69L15.3118 8.31H13.5682L19 11.82V10.69Z"
      fill="#FF381D"/>
  </g>
</svg>
