<svg width="48" height="66" viewBox="0 0 48 66" fill="none" xmlns="http://www.w3.org/2000/svg">
<path d="M24 64.6001L23.617 64.9216L24 65.3778L24.383 64.9216L24 64.6001ZM46.5 24.179C46.5 27.3142 45.1072 31.3817 42.9573 35.7686C40.8154 40.1392 37.9545 44.7633 35.0862 48.9923C32.2191 53.2194 29.3509 57.0421 27.1991 59.8086C26.1234 61.1915 25.2271 62.3099 24.6001 63.0822C24.2866 63.4683 24.0405 63.7679 23.8729 63.9707C23.7891 64.0721 23.7249 64.1493 23.6818 64.2011C23.6603 64.2269 23.644 64.2464 23.6331 64.2594C23.6277 64.2659 23.6236 64.2708 23.6209 64.274C23.6196 64.2756 23.6186 64.2768 23.6179 64.2775C23.6176 64.2779 23.6174 64.2782 23.6172 64.2784C23.6171 64.2786 23.617 64.2786 24 64.6001C24.383 64.9216 24.3831 64.9214 24.3833 64.9212C24.3835 64.9209 24.3838 64.9206 24.3842 64.9201C24.3849 64.9192 24.386 64.9179 24.3874 64.9162C24.3903 64.9128 24.3946 64.9077 24.4002 64.9009C24.4115 64.8875 24.4282 64.8675 24.4501 64.8411C24.4941 64.7884 24.5591 64.7102 24.6437 64.6077C24.8131 64.4028 25.061 64.101 25.3765 63.7125C26.0073 62.9356 26.9079 61.8117 27.9884 60.4225C30.1491 57.6448 33.0309 53.8039 35.9138 49.5536C38.7955 45.305 41.6846 40.6378 43.8552 36.2086C46.0178 31.7958 47.5 27.555 47.5 24.179H46.5ZM24 1.1001C36.4148 1.1001 46.5 11.4211 46.5 24.179H47.5C47.5 10.8924 36.9903 0.100098 24 0.100098V1.1001ZM1.5 24.179C1.5 11.4211 11.5852 1.1001 24 1.1001V0.100098C11.0097 0.100098 0.5 10.8924 0.5 24.179H1.5ZM24 64.6001C24.383 64.2786 24.3829 64.2786 24.3828 64.2784C24.3826 64.2782 24.3824 64.2779 24.3821 64.2775C24.3814 64.2768 24.3804 64.2756 24.3791 64.274C24.3764 64.2708 24.3723 64.2659 24.3669 64.2594C24.356 64.2464 24.3397 64.2269 24.3182 64.2011C24.2751 64.1493 24.2109 64.0721 24.1271 63.9707C23.9595 63.7679 23.7134 63.4683 23.3999 63.0822C22.7729 62.3099 21.8766 61.1915 20.8009 59.8086C18.6491 57.0421 15.7809 53.2194 12.9138 48.9923C10.0455 44.7633 7.18462 40.1392 5.04273 35.7686C2.89284 31.3817 1.5 27.3142 1.5 24.179H0.5C0.5 27.555 1.98216 31.7958 4.14477 36.2086C6.31538 40.6378 9.20455 45.305 12.0862 49.5536C14.9691 53.8039 17.8509 57.6448 20.0116 60.4225C21.0921 61.8117 21.9927 62.9356 22.6235 63.7125C22.939 64.101 23.1869 64.4028 23.3563 64.6077C23.4409 64.7102 23.5059 64.7884 23.5499 64.8411C23.5718 64.8675 23.5885 64.8875 23.5998 64.9009C23.6054 64.9077 23.6097 64.9128 23.6126 64.9162C23.614 64.9179 23.6151 64.9192 23.6158 64.9201C23.6162 64.9206 23.6165 64.9209 23.6167 64.9212C23.6169 64.9214 23.617 64.9216 24 64.6001ZM32.6994 23.4573C32.6994 28.2277 28.8072 32.1001 23.9994 32.1001V33.1001C29.3536 33.1001 33.6994 28.7858 33.6994 23.4573H32.6994ZM23.9994 14.8144C28.8072 14.8144 32.6994 18.6869 32.6994 23.4573H33.6994C33.6994 18.1287 29.3536 13.8144 23.9994 13.8144V14.8144ZM15.2994 23.4573C15.2994 18.6869 19.1916 14.8144 23.9994 14.8144V13.8144C18.6452 13.8144 14.2994 18.1287 14.2994 23.4573H15.2994ZM23.9994 32.1001C19.1916 32.1001 15.2994 28.2277 15.2994 23.4573H14.2994C14.2994 28.7858 18.6452 33.1001 23.9994 33.1001V32.1001Z" fill="#B200FF"/>
</svg>
