<svg width="64" height="65" viewBox="0 0 64 65" fill="none" xmlns="http://www.w3.org/2000/svg">
<path fill-rule="evenodd" clip-rule="evenodd" d="M34.791 33.9853C33.5452 35.2311 31.5347 35.2405 30.3004 34.0062C29.0661 32.7719 29.0754 30.7614 30.3212 29.5156C31.567 28.2698 33.5775 28.2604 34.8118 29.4947C36.0461 30.729 36.0368 32.7396 34.791 33.9853ZM34.0839 33.2782C33.2224 34.1397 31.8451 34.1367 31.0075 33.2991C30.1699 32.4615 30.1669 31.0841 31.0283 30.2227C31.8898 29.3612 33.2671 29.3642 34.1047 30.2018C34.9423 31.0395 34.9454 32.4168 34.0839 33.2782Z" fill="#52FF00"/>
<path fill-rule="evenodd" clip-rule="evenodd" d="M30.6901 0.761719L33.578 20.8698C33.7412 20.7792 33.8868 20.6997 34.0126 20.6319C34.1832 20.5398 34.3173 20.4692 34.4092 20.4214C34.4551 20.3975 34.4905 20.3793 34.5147 20.367L34.5423 20.3528L34.5517 20.3481L34.7775 20.7942L34.5526 20.3476L34.5574 20.3453L34.7712 20.7814C34.5574 20.3453 34.5572 20.3453 34.5574 20.3453L34.5595 20.3443L34.5639 20.3421L34.58 20.3343C34.5938 20.3277 34.6138 20.3182 34.6396 20.3061C34.6912 20.2818 34.7663 20.2471 34.8623 20.2041C35.0542 20.1182 35.3302 19.9993 35.6702 19.8652C36.3488 19.5975 37.2886 19.2671 38.327 19.0202C39.3623 18.774 40.5165 18.6057 41.6175 18.6763C42.7187 18.7469 43.806 19.0597 44.6551 19.8147C45.5537 20.6137 45.9392 21.691 46.0352 22.8005C46.1308 23.9044 45.9441 25.0736 45.6668 26.1233C45.3884 27.1771 45.0114 28.1373 44.7056 28.8318C44.5523 29.1799 44.4161 29.4631 44.3176 29.6602C44.2684 29.7588 44.2286 29.836 44.2008 29.8891L44.179 29.9303L44.1683 29.9503L44.1678 29.9513L44.1511 29.9901C44.1343 30.0289 44.1097 30.0851 44.0782 30.156C44.0151 30.2976 43.9241 30.4983 43.8114 30.736C43.6759 31.0215 43.5082 31.3625 43.3192 31.7198L63.8724 34.6716L63.2416 38.8034L40.7213 35.569C39.4401 37.3697 37.8593 39.3082 36.0978 40.8597L39.1829 62.3412L35.0512 62.972L32.21 43.1897C31.1766 43.4368 30.0845 43.4634 29.2103 43.4234C28.6574 43.3981 28.1786 43.3454 27.8373 43.299C27.708 43.2814 27.5982 43.2646 27.5112 43.2505L12.9217 54.6243L18.4626 60.1652L15.4995 63.1283L9.89061 57.5105L2.00123 64.2828L0.228516 62.5101L7.00049 54.6204L1.38299 49.0118L4.34609 46.0487L9.8867 51.5893L21.2672 36.9918C21.2567 36.9097 21.2442 36.8063 21.231 36.6848C21.196 36.3613 21.156 35.9077 21.136 35.3846C21.104 34.5486 21.1219 33.5069 21.306 32.5292L1.83338 29.7326L2.46425 25.6008L23.4737 28.6182C25.2686 26.5232 27.631 24.6729 29.6993 23.2628L26.5583 1.3926L30.6901 0.761719ZM24.659 28.7884L26.9125 29.112L26.2816 33.2438L22.2968 32.6715C22.1263 33.5479 22.1038 34.5226 22.1352 35.3464C22.1542 35.8415 22.1921 36.2714 22.2252 36.577C22.2417 36.7296 22.257 36.8508 22.2681 36.9331C22.2736 36.9743 22.2781 37.0056 22.2811 37.0264L22.2845 37.0493L22.2853 37.0545L22.2855 37.0555L22.3188 37.2693L9.97967 53.0965L4.34609 47.4629L2.79777 49.0113L8.36334 54.568L1.59088 62.4582L2.05306 62.9204L9.943 56.1477L15.5 61.7135L17.0483 60.1652L11.4145 54.5313L27.2515 42.185L27.4754 42.2293L27.4816 42.2305L27.5051 42.2349C27.5264 42.2388 27.5589 42.2446 27.6016 42.2519C27.687 42.2664 27.8131 42.2864 27.9722 42.3081C28.2907 42.3514 28.7391 42.4008 29.256 42.4244C30.1225 42.4641 31.1464 42.4296 32.0672 42.1951L31.5354 38.4922L35.6671 37.8613L35.926 39.6638C37.286 38.3846 38.5347 36.8741 39.6043 35.4086L38.8966 35.307L39.5275 31.1752L42.2644 31.5683C42.5134 31.1178 42.7361 30.6696 42.9079 30.3074C43.0166 30.0782 43.1042 29.885 43.1645 29.7495C43.1947 29.6817 43.2179 29.6285 43.2335 29.5925L43.2511 29.5517L43.2554 29.5417L43.2564 29.5394L43.2663 29.516L45.039 22.8868L43.2782 29.4941L43.2799 29.491L43.2868 29.4783L43.3007 29.4522L43.315 29.4249C43.34 29.3772 43.3768 29.3059 43.4229 29.2135C43.5152 29.0287 43.6445 28.7601 43.7904 28.4288C44.0829 27.7645 44.4391 26.8556 44.7 25.8679C44.962 24.876 45.1207 23.8313 45.039 22.8868C44.9577 21.9479 44.6434 21.1424 43.9907 20.562C43.3632 20.0041 42.519 19.7362 41.5535 19.6742C40.588 19.6123 39.5403 19.7595 38.5584 19.993C37.5796 20.2258 36.6868 20.5392 36.0371 20.7954C35.7129 20.9233 35.4508 21.0363 35.2707 21.1169C35.1807 21.1572 35.1113 21.1893 35.0649 21.2111L35.013 21.2357L35.0006 21.2417L34.9949 21.2446L34.9701 21.2572C34.948 21.2685 34.9146 21.2857 34.8707 21.3085C34.783 21.3542 34.6533 21.4224 34.4873 21.512C34.2853 21.621 34.0296 21.7614 33.7304 21.9309L34.2167 25.3171L30.085 25.948L29.858 24.368C28.0963 25.5971 26.1946 27.1117 24.659 28.7884ZM32.6443 21.4024L32.5948 21.4313L32.6658 21.5523L33.086 24.4782L30.9313 24.8072L27.689 2.2315L29.8437 1.9025L32.6443 21.4024ZM62.7316 35.518L40.3664 32.3059L40.0374 34.4606L62.4027 37.6727L62.7316 35.518ZM34.8207 39.0021L38.0522 61.5023L35.8975 61.8313L32.6661 39.3311L34.8207 39.0021ZM3.30316 26.7315L25.7717 29.9584L25.4427 32.1131L2.97416 28.8862L3.30316 26.7315Z" fill="#52FF00"/>
</svg>
