<svg width="39" height="39" viewBox="0 0 39 39" fill="none" xmlns="http://www.w3.org/2000/svg">
  <path fill-rule="evenodd" clip-rule="evenodd"
        d="M23.5238 0V5.76572C28.1375 7.16114 31.7605 10.8329 33.0875 15.4762H39V23.5238H33.0263C31.6518 28.0685 28.0685 31.6518 23.5238 33.0263V39H15.4762V33.0875C10.8329 31.7605 7.16114 28.1375 5.76572 23.5238H0V15.4762H5.70456C7.05137 10.7635 10.7635 7.05137 15.4762 5.70456V0H23.5238ZM16.4048 6.42397C11.456 7.56047 7.56047 11.456 6.42397 16.4048H0.928571V22.5952H6.4735C7.67014 27.445 11.5255 31.2475 16.4048 32.3681V38.0714H22.5952V32.3185C27.3759 31.139 31.139 27.3759 32.3185 22.5952H38.0714V16.4048H32.3681C31.2475 11.5255 27.445 7.67014 22.5952 6.4735V0.928571H16.4048V6.42397Z"
        fill="url(#paint0_linear)"/>
  <path fill-rule="evenodd" clip-rule="evenodd"
        d="M24.288 16.7155L14.112 23.0755L13.582 22.2275L23.758 15.8676L24.288 16.7155Z" fill="#F2F2F2"/>
  <defs>
    <linearGradient id="paint0_linear" x1="19.5" y1="0.928571" x2="19.5" y2="38.0714" gradientUnits="userSpaceOnUse">
      <stop stop-color="#52FF00"/>
      <stop offset="1" stop-color="#52FF00"/>
    </linearGradient>
  </defs>
</svg>
