<svg width="20" height="20" viewBox="0 0 20 20" fill="none" xmlns="http://www.w3.org/2000/svg">
  <path fill-rule="evenodd" clip-rule="evenodd"
        d="M13.7931 0L0 13.7931L6.2069 20L20 6.2069L13.7931 0ZM17.931 6.2069L13.7931 2.06897L12.5789 3.28313L14.9936 5.6978L13.9591 6.73229L11.5445 4.31761L9.9511 5.91097L11.6752 7.63504L10.6407 8.66952L8.91662 6.94545L7.32421 8.53786L9.73793 10.9516L8.70345 11.9861L6.28973 9.57234L4.69733 11.1647L6.42139 12.8888L5.38691 13.9233L3.66284 12.1992L2.06897 13.7931L6.2069 17.931L17.931 6.2069Z"
        fill="currentColor"/>
</svg>
