<svg width="22" height="22" viewBox="0 0 22 22" fill="none" xmlns="http://www.w3.org/2000/svg">
  <circle cx="11" cy="11" r="10" fill="#0075FF" stroke="black" stroke-width="2"/>
  <circle cx="11" cy="11" r="7" fill="white"/>
  <rect x="10.4297" y="8" width="1.14286" height="6" fill="black"/>
  <path d="M9.28627 9L8.71484 8L13.2863 8L12.7148 9L9.28627 9Z" fill="black"/>
  <path
    d="M8.50205 14.1786C7.88858 13.7313 7.37669 13.1592 7 12.5L11 14L15 12.5C14.6233 13.1592 14.1114 13.7313 13.4979 14.1786L11 16L8.50205 14.1786Z"
    fill="black"/>
  <ellipse cx="10.9983" cy="7" rx="1.14286" ry="1" fill="black"/>
</svg>
