<svg width="19" height="18" viewBox="0 0 19 18" fill="none" xmlns="http://www.w3.org/2000/svg">
  <circle cx="9.60962" cy="9" r="8.5" stroke="currentColor"/>
  <rect x="7.60962" y="7" width="7" height="1" fill="currentColor"/>
  <rect x="4.60962" y="7" width="1" height="1" fill="currentColor"/>
  <rect x="4.60962" y="10" width="1" height="1" fill="currentColor"/>
  <rect x="7.60962" y="10" width="7" height="1" fill="currentColor"/>
</svg>
