<svg width="26" height="26" viewBox="0 0 26 26" fill="none" xmlns="http://www.w3.org/2000/svg">
<circle cx="13" cy="13" r="12.5" stroke="white"/>
<rect x="10" y="12" width="2" height="7" fill="white"/>
<rect x="7" y="7" width="1" height="12" fill="white"/>
<rect x="18" y="7" width="1" height="12" fill="white"/>
<rect x="14" y="12" width="2" height="7" fill="white"/>
</svg>
