<svg fill="none" viewBox="0 0 55 55" xmlns="http://www.w3.org/2000/svg">
  <path
    d="m41.35 51.317c0.2231-0.2231 0.3682-0.5292 0.3563-1.0818l-1.2451-27.315c-1e-4 -7e-4 -1e-4 -0.0014-1e-4 -0.0021-0.0362-0.7633-0.0058-1.5096 0.2931-2.2591 0.295-0.7395 0.7904-1.3281 1.3683-1.9061l7.8637-7.8631c1.7245-1.7244 2.8443-3.6447 3.2921-5.3053 0.4543-1.6844 0.1664-2.815-0.4268-3.4276-0.6244-0.60476-1.7563-0.89003-3.4334-0.43498-1.6571 0.44966-3.5734 1.5736-5.3002 3.3002l-7.8636 7.8634c-0.578 0.5778-1.1667 1.0732-1.9063 1.3681-0.7497 0.2989-1.4962 0.3292-2.2599 0.2929-5e-4 0-1e-3 0-0.0015-1e-4l-27.316-1.2448c-0.55287-0.012-0.85913 0.1331-1.0822 0.3562l-1.6906 1.6905 22.834 8.6193-10.67 13.379-10.903-3.1812c-0.13472-0.0369-0.18464-0.0219-0.20292-0.0164-0.03184 0.0095-0.14304 0.0516-0.33641 0.2449l-0.6389 0.6388 17.873 17.872 0.6392-0.6391c0.2078-0.2077 0.2539-0.3225 0.2634-0.3524 0.0045-0.0141 0.0064-0.0253 0.0064-0.0417 0-0.0179-0.0025-0.0571-0.0209-0.1243l-3.1814-10.903 13.38-10.67 8.6197 22.833 1.6908-1.6909zm-19.066 0.0197c0.2074 0.7398 0.0038 1.3553-0.631 1.99l-0.8397 0.8394c-0.5119 0.512-1.1689 0.5513-1.7043 0.016l-18.306-18.305c-0.51477-0.5149-0.49612-1.1924 0.015852-1.7044l0.8396-0.8395c0.63483-0.6346 1.2709-0.8177 2.0107-0.6104l9.9468 2.9022 8.7585-10.982-21.646-8.1706c-0.7811-0.2894-0.9474-1.0292-0.43547-1.5412l2.3345-2.3343c0.57339-0.5733 1.312-0.8177 2.195-0.7947l27.335 1.2457c1.376 0.0655 1.9709-0.1587 3.0358-1.2233l7.8636-7.8634c3.7475-3.7471 8.5488-5.1301 10.855-2.8652 2.2446 2.2854 0.8821 7.107-2.8655 10.854l-7.8636 7.8631c-1.0649 1.0649-1.2891 1.6597-1.2237 3.0354l1.2459 27.334c0.023 0.8829-0.2214 1.6214-0.7948 2.1947l-2.3345 2.3346c-0.5119 0.5117-1.2722 0.3249-1.5413-0.4357l-8.1709-21.644-10.982 8.7581 2.9023 9.9462z"
    clip-rule="evenodd" fill="currentColor" fill-rule="evenodd"/>
</svg>
