<svg width="11" height="11" viewBox="0 0 11 11" fill="none" xmlns="http://www.w3.org/2000/svg">
  <path fill-rule="evenodd" clip-rule="evenodd"
        d="M5 0.500002C5 0.776146 5.22386 1 5.5 1L9.29289 1L0.999996 9.2929L0.999996 5.5C0.999996 5.22386 0.776139 5 0.499998 5C0.223857 5 -5.26834e-08 5.22386 0 5.5L2.95027e-07 10.5C2.95027e-07 10.7761 0.223857 11 0.499998 11L5.49996 11C5.7761 11 5.99995 10.7761 5.99995 10.5C5.99995 10.2239 5.7761 10 5.49996 10L1.70711 10L9.99996 1.70715V5.5C9.99996 5.77614 10.2238 6 10.5 6C10.7761 6 11 5.77614 11 5.5V0.500002C11 0.367393 10.9473 0.240216 10.8535 0.146447C10.7597 0.0526786 10.6326 -1.68588e-07 10.5 0L5.5 2.10748e-08C5.22386 4.21485e-08 5 0.223859 5 0.500002Z"
        fill="currentColor"/>
</svg>
