<svg width="14" height="19" viewBox="0 0 14 19" fill="none" xmlns="http://www.w3.org/2000/svg">
  <circle cx="2" cy="10.9705" r="2" fill="currentColor"/>
  <circle cx="12" cy="4.97046" r="2" fill="currentColor"/>
  <circle cx="12" cy="16.9705" r="2" fill="currentColor"/>
  <path d="M12 4.97046L2 10.9705L12 16.9705" stroke="currentColor"/>
</svg>
