<svg width="10" height="12" viewBox="0 0 10 12" fill="none" xmlns="http://www.w3.org/2000/svg">
<path d="M1.56465e-05 0L0 7.76471L10 4.05115L1.56465e-05 0Z" fill="#FF5A43"/>
<line x1="0.5" y1="0.706055" x2="0.499999" y2="12.0002" stroke="#FF5A43"/>
</svg>
