<svg width="19" height="18" viewBox="0 0 19 18" fill="none" xmlns="http://www.w3.org/2000/svg">
  <path
    d="M6.96891 0.306641L0.791016 6.93711L6.96891 13.5676L8.39526 12.1571L4.48058 7.95567H7.68118C11.0588 7.95567 13.2985 9.10022 14.7072 10.7563C16.1356 12.4355 16.8142 14.7647 16.8139 17.3064L18.791 17.3066C18.7914 14.4169 18.0209 11.5615 16.1942 9.41393C14.3477 7.24323 11.5265 5.91887 7.68118 5.91887H4.48028L8.39526 1.71709L6.96891 0.306641Z"
    fill="currentColor"/>
</svg>
