<svg width="18" height="18" viewBox="0 0 18 18" fill="none" xmlns="http://www.w3.org/2000/svg">
  <path fill-rule="evenodd" clip-rule="evenodd"
        d="M9 18C13.9706 18 18 13.9706 18 9C18 4.02944 13.9706 0 9 0C4.02944 0 0 4.02944 0 9C0 13.9706 4.02944 18 9 18ZM9 17C13.4183 17 17 13.4183 17 9C17 4.58172 13.4183 1 9 1C4.58172 1 1 4.58172 1 9C1 13.4183 4.58172 17 9 17ZM9.3018 10.4807H8.3298L8.25781 4.55273H9.37381L9.3018 10.4807ZM8.07812 12.4C8.07812 11.98 8.41413 11.668 8.82213 11.668C9.23013 11.668 9.56612 11.98 9.56612 12.4C9.56612 12.82 9.23013 13.132 8.82213 13.132C8.41413 13.132 8.07812 12.82 8.07812 12.4Z"
        fill="#FF5A43"/>
</svg>
