<svg width="30" height="40" viewBox="0 0 30 40" fill="none" xmlns="http://www.w3.org/2000/svg">
  <path fill-rule="evenodd" clip-rule="evenodd"
        d="M15.1269 10.5625C14.9599 10.5625 14.7947 10.5701 14.6315 10.5849L14.6315 1H15.6223L15.6223 10.5849C15.4592 10.5701 15.2939 10.5625 15.1269 10.5625ZM19.4894 19.3594C19.6872 19.0933 19.8616 18.8086 20.0095 18.5082L28.2654 23.5727L27.7508 24.4273L19.4894 19.3594ZM10.2432 18.5059C10.391 18.8063 10.5653 19.0912 10.7629 19.3573L2.50317 24.4272L1.98828 23.5728L10.2432 18.5059ZM24.5291 15.5631C24.5376 15.397 24.542 15.2298 24.542 15.0615C24.542 14.8944 24.5377 14.7282 24.5292 14.5631H20.3738C20.464 14.8854 20.5259 15.2197 20.5565 15.5631H24.5291ZM22.1281 8.70915L18.8368 12.0309C18.5928 11.8022 18.3281 11.5958 18.0458 11.4149L21.4277 8.00181C21.4999 8.06749 21.5712 8.13428 21.6413 8.20216L21.9255 8.48895C21.9942 8.56127 22.0617 8.63468 22.1281 8.70915ZM8.83187 8L12.2141 11.4134C11.9317 11.5942 11.6668 11.8005 11.4228 12.029L8.13125 8.70714C8.19709 8.63335 8.26405 8.5606 8.33211 8.48893L8.61625 8.20217C8.68708 8.13367 8.75896 8.06627 8.83187 8ZM9.70114 15.5631C9.73171 15.2197 9.79355 14.8854 9.88377 14.5631H5.72836C5.7199 14.7282 5.71562 14.8944 5.71562 15.0615C5.71562 15.2298 5.71995 15.397 5.72851 15.5631H9.70114ZM16.1158 17.7324C16.7081 17.3866 17.1066 16.7403 17.1066 16C17.1066 14.8954 16.2194 14 15.1249 14C14.0305 14 13.1432 14.8954 13.1432 16C13.1432 16.7403 13.5417 17.3866 14.1341 17.7324L14.1341 37H12.1523V39H18.0975V37H16.1158L16.1158 17.7324Z"
        fill="#FF5A43"/>
  <path fill-rule="evenodd" clip-rule="evenodd"
        d="M13.6486 11.6782L12.7439 12.2572C12.5128 12.4051 12.2959 12.574 12.0959 12.7613L11.3962 13.4166L6.76489 8.7425L7.39404 8.03728C7.46676 7.95577 7.54073 7.87542 7.61591 7.79625L7.62319 7.78859L7.92219 7.48683L7.92978 7.47949C8.00801 7.40382 8.08741 7.32937 8.16796 7.25617L8.86673 6.62109L13.6388 11.4372V0H16.6114V11.4468L21.3914 6.62272L22.0901 7.25817C22.1699 7.33072 22.2486 7.4045 22.3261 7.47947L22.3337 7.48681L22.6327 7.78861L22.64 7.79627C22.7159 7.87615 22.7905 7.95724 22.8638 8.03951L23.4926 8.74471L18.8613 13.4187L18.1616 12.7628C17.9617 12.5755 17.7449 12.4065 17.5139 12.2584L16.6094 11.6789L15.5316 11.5809C15.398 11.5687 15.2624 11.5625 15.1251 11.5625C14.9878 11.5625 14.8523 11.5687 14.7186 11.5809L13.6486 11.6782ZM29.625 23.2376L19.6007 17.0883L19.1205 18.063C18.9995 18.3085 18.8569 18.5415 18.6949 18.7594L18.0395 19.6413L28.081 25.8012L29.625 23.2376ZM2.16966 25.8012L12.2086 19.6393L11.554 18.7577C11.3922 18.5397 11.2496 18.3067 11.1288 18.0611L10.6486 17.0855L0.625 23.2381L2.16966 25.8012ZM15.1251 10.5625C15.2921 10.5625 15.4574 10.5701 15.6205 10.5849V1H14.6297V10.5849C14.7928 10.5701 14.9581 10.5625 15.1251 10.5625ZM20.0077 18.5082C19.8703 18.7872 19.71 19.0527 19.5295 19.3023C19.5156 19.3214 19.5017 19.3404 19.4876 19.3594L27.749 24.4273L28.2636 23.5727L20.0077 18.5082ZM1.98647 23.5728L10.2413 18.5059C10.3799 18.7874 10.5416 19.0551 10.7239 19.3067C10.7329 19.319 10.7419 19.3313 10.7509 19.3436C10.7543 19.3482 10.7577 19.3528 10.7611 19.3573L2.50135 24.4272L1.98647 23.5728ZM25.4689 16.5624H19.6498L19.5687 15.6518C19.5437 15.3706 19.4931 15.0974 19.4194 14.8342L19.0634 13.5624H25.4694L25.5179 14.5107C25.5273 14.693 25.532 14.8764 25.532 15.0608C25.532 15.2464 25.5272 15.4309 25.5178 15.6143L25.4689 16.5624ZM11.1925 13.5624L10.8365 14.8342C10.7628 15.0974 10.7122 15.3706 10.6872 15.6518L10.6061 16.5624H4.78701L4.73814 15.6143C4.72869 15.4309 4.72391 15.2464 4.72391 15.0608C4.72391 14.8764 4.72863 14.693 4.73797 14.5107L4.78654 13.5624H11.1925ZM24.5282 15.5624L24.5284 15.5593C24.5368 15.3942 24.5411 15.228 24.5411 15.0608C24.5411 14.8936 24.5368 14.7274 24.5284 14.5624H20.373C20.4632 14.8847 20.525 15.219 20.5556 15.5624H24.5282ZM22.1232 8.70379L22.1273 8.70842L18.8359 12.0301C18.592 11.8015 18.3273 11.5951 18.045 11.4142L21.4266 8.00131C21.4989 8.06699 21.5703 8.13355 21.6405 8.20142L21.9247 8.48822C21.9919 8.55903 22.0581 8.6309 22.1232 8.70379ZM8.61541 8.20144C8.68623 8.13293 8.75811 8.06553 8.83102 7.99927L12.2133 11.4127C11.9308 11.5935 11.666 11.7997 11.4219 12.0283L8.13041 8.7064C8.19607 8.63282 8.26338 8.55968 8.33126 8.4882L8.61541 8.20144ZM9.88292 14.5624C9.7927 14.8847 9.73086 15.219 9.70029 15.5624H5.72767L5.72751 15.5593C5.71905 15.3942 5.71477 15.228 5.71477 15.0608C5.71477 14.8936 5.71905 14.7274 5.72751 14.5624H9.88292ZM13.1462 36L13.1462 18.2359C12.5391 17.6875 12.1554 16.8893 12.1554 16C12.1554 14.3431 13.4862 13 15.128 13C16.7697 13 18.1005 14.3431 18.1005 16C18.1005 16.8893 17.7168 17.6875 17.1097 18.2359V36H19.0914V40H11.1645V36H13.1462ZM16.1188 17.7324C16.7111 17.3866 17.1097 16.7403 17.1097 16C17.1097 14.8954 16.2224 14 15.128 14C14.0335 14 13.1462 14.8954 13.1462 16C13.1462 16.7403 13.5448 17.3866 14.1371 17.7324L14.1371 37H12.1554V39H18.1005V37H16.1188L16.1188 17.7324Z"
        fill="black"/>
</svg>
