<svg width="42" height="47" viewBox="0 0 42 47" fill="none" xmlns="http://www.w3.org/2000/svg">
  <path fill-rule="evenodd" clip-rule="evenodd"
        d="M27.1807 10.5625C27.0143 10.5625 26.8496 10.5701 26.6871 10.5849V1H27.6743V10.5849C27.5117 10.5701 27.3471 10.5625 27.1807 10.5625ZM31.5273 19.3594C31.7243 19.0933 31.8981 18.8086 32.0456 18.5082L40.2714 23.5727L39.7586 24.4273L31.5273 19.3594ZM22.3147 18.5059C22.462 18.8063 22.6356 19.0912 22.8325 19.3573L17.0482 22.9207C17.0492 22.947 17.0497 22.9735 17.0497 23C17.0497 23.7403 16.6527 24.3866 16.0625 24.7324L16.0625 44H18.037V46H12.1135V44H14.088L14.088 24.7324C13.4978 24.3866 13.1007 23.7403 13.1007 23C13.1007 21.8954 13.9847 21 15.0752 21C15.7796 21 16.3978 21.3735 16.7473 21.9357L22.3147 18.5059ZM29.1552 16C29.1552 16.7403 28.7581 17.3866 28.168 17.7324V37H30.1425V39H24.2189V37H26.1934V30.5285L19.4219 26.3594C19.6189 26.0933 19.7926 25.8086 19.9401 25.5082L26.1934 29.3583V17.7324C25.6033 17.3866 25.2062 16.7403 25.2062 16C25.2062 14.8954 26.0902 14 27.1807 14C28.2712 14 29.1552 14.8954 29.1552 16ZM15.0752 17.5625C14.9088 17.5625 14.7442 17.5701 14.5816 17.5849L14.5816 8H15.5689L15.5689 17.5849C15.4063 17.5701 15.2416 17.5625 15.0752 17.5625ZM10.2092 25.5059C10.3565 25.8063 10.5302 26.0912 10.7271 26.3573L2.49739 31.4272L1.98438 30.5728L10.2092 25.5059Z"
        fill="#FF5A43"/>
  <path fill-rule="evenodd" clip-rule="evenodd"
        d="M25.6969 11.6791V0H28.6587V11.6791L27.5829 11.5809C27.4497 11.5687 27.3146 11.5625 27.1778 11.5625C27.0411 11.5625 26.906 11.5687 26.7728 11.5809L25.6969 11.6791ZM31.6372 17.0883L41.625 23.2376L40.0866 25.8012L30.0816 19.6413L30.7347 18.7594C30.896 18.5415 31.0382 18.3085 31.1587 18.063L31.6372 17.0883ZM24.2719 19.6393L17.9918 23.5081C17.8767 24.1908 17.5339 24.7943 17.0469 25.2359V43H19.0214V47H11.1233V43H13.0979V25.2359C12.493 24.6875 12.1106 23.8893 12.1106 23C12.1106 21.3431 13.4366 20 15.0724 20C15.7722 20 16.415 20.2462 16.9212 20.6564L22.7176 17.0855L23.196 18.0611C23.3165 18.3067 23.4585 18.5397 23.6197 18.7577L24.2719 19.6393ZM16.7444 21.9357C16.3949 21.3735 15.7767 21 15.0724 21C13.9819 21 13.0979 21.8954 13.0979 23C13.0979 23.7403 13.4949 24.3866 14.0851 24.7324V44H12.1106V46H18.0341V44H16.0596V24.7324C16.6498 24.3866 17.0469 23.7403 17.0469 23C17.0469 22.9735 17.0464 22.947 17.0454 22.9207L22.8297 19.3573C22.8172 19.3405 22.8049 19.3237 22.7927 19.3067C22.611 19.0551 22.4498 18.7874 22.3118 18.5059L16.7444 21.9357ZM31.1269 36V40H23.2288V36H25.2033V31.0909L17.9762 26.6413L18.6292 25.7594C18.7905 25.5415 18.9327 25.3085 19.0532 25.063L19.5317 24.0883L25.2033 27.5802V18.2359C24.5984 17.6875 24.2161 16.8893 24.2161 16C24.2161 14.3431 25.5421 13 27.1778 13C28.8136 13 30.1396 14.3431 30.1396 16C30.1396 16.8893 29.7572 17.6875 29.1523 18.2359V36H31.1269ZM28.1651 17.7324C28.7553 17.3866 29.1523 16.7403 29.1523 16C29.1523 14.8954 28.2683 14 27.1778 14C26.0873 14 25.2033 14.8954 25.2033 16C25.2033 16.7403 25.6004 17.3866 26.1906 17.7324V29.3583L19.9372 25.5082C19.8003 25.7872 19.6406 26.0527 19.4607 26.3023C19.4469 26.3214 19.433 26.3404 19.419 26.3594L26.1906 30.5285V37H24.2161V39H30.1396V37H28.1651V17.7324ZM13.5915 18.6791V7H16.5533V18.6791L15.4774 18.5809C15.3442 18.5687 15.2091 18.5625 15.0724 18.5625C14.9356 18.5625 14.8005 18.5687 14.6673 18.5809L13.5915 18.6791ZM12.1664 26.6393L2.16404 32.8012L0.625 30.2381L10.6122 24.0855L11.0906 25.0611C11.211 25.3067 11.353 25.5397 11.5143 25.7577L12.1664 26.6393ZM27.6715 10.5849C27.5089 10.5701 27.3442 10.5625 27.1778 10.5625C27.0114 10.5625 26.8468 10.5701 26.6842 10.5849V1H27.6715V10.5849ZM32.0427 18.5082C31.9057 18.7872 31.7461 19.0527 31.5662 19.3023C31.5524 19.3214 31.5385 19.3404 31.5245 19.3594L39.7558 24.4273L40.2686 23.5727L32.0427 18.5082ZM15.566 8H14.5787V17.5849C14.7413 17.5701 14.906 17.5625 15.0724 17.5625C15.2388 17.5625 15.4034 17.5701 15.566 17.5849V8ZM10.2064 25.5059L1.98151 30.5728L2.49453 31.4272L10.7242 26.3573C10.7118 26.3405 10.6994 26.3236 10.6872 26.3067C10.5055 26.0551 10.3444 25.7874 10.2064 25.5059Z"
        fill="black"/>
</svg>
