<svg width="24" height="24" viewBox="0 0 24 24" fill="none" xmlns="http://www.w3.org/2000/svg">
<circle r="11" transform="matrix(1 0 0 -1 12 12)" stroke="#DC006F" stroke-width="2" stroke-dasharray="1 1"/>
<circle r="7" transform="matrix(1 0 0 -1 12 12)" stroke="#DC006F" stroke-opacity="0.4" stroke-width="6" stroke-dasharray="1 1"/>
</svg>
