{
  "needRecovery": true,
  "mapStart": {

    "baseLayerOpacity": 0.45,
    "transparentMapLayerColor": "white"
  },
  "formular": {
    "airdrome": {
      "weather": false,
      "service": false,
      "shema": false
    }
  },
  "vp": {
    "legend_start_state": {
      "relief": false,
      "fir": false,
      "ani_uc": false,
      "ani_ur": false,
      "ani_ur_n": false,
      "notam": false,
      "border": false,
      "borderCorridor": false,
      "m-sigmet": false,
      "m-airmet": false,
      "m-gamet": false
    }
  },
  "ani": {
    "startFromAnyPreset": true
  }
}
