<svg width="200" height="200" xmlns="http://www.w3.org/2000/svg">
 <!-- Created with ImageBot - http://www.imagebot.com/ -->
 <g id="imagebot_1">
  <title>Layer 1</title>
  <line id="imagebot_3" y2="10" x2="191" y1="190" x1="9" stroke-linecap="round" stroke-linejoin="round" stroke-width="10" stroke="#000000" fill="none"/>
 </g>
</svg>